{
    "wallpaper": "/home/john/wallpapers/pixelart_train.png",
    "alpha": "100",

    "special": {
        "background": "#0f1016",
        "foreground": "#ddcbc8",
        "cursor": "#ddcbc8"
    },
    "colors": {
		"color0": "#0f1016",
		"color1": "#525182",
		"color2": "#bc97a3",
		"color3": "#715b82",
		"color4": "#818251",
		"color5": "#97bcb0",
		"color6": "#6c825b",
		"color7": "#ddcbc8",
		"color8": "#242634",
		"color9": "#6766a0",
		"color10": "#d0b6be",
		"color11": "#8b739d",
		"color12": "#9fa066",
		"color13": "#b6d0c8",
		"color14": "#859d73",
		"color15": "#f0e9e7"
    }
}

