{
    "alpha": "100",
    "special": {
        "background": "#1f1f28",
        "foreground": "#dcd7ba",
        "cursor": "#1f1f28"
    },
    "colors": {
		"color0": "#727169",
		"color1": "#e46876",
		"color2": "#98bb6c",
		"color3": "#e6c384",
		"color4": "#7e9cd8",
		"color5": "#957fb8",
		"color6": "#68ad99",
		"color7": "#c8c093",
		"color8": "#717c7c",
		"color9": "#e46876",
		"color10": "#98bb6c",
		"color11": "#e6c384",
		"color12": "#7e9cd8",
		"color13": "#957fb8",
		"color14": "#68ad99",
		"color15": "#dcd7ba"
    }
}

